waveform.vcd
$date
     Jun 19, 2018       14:08:44
$end

$version
              SystemC 2.3.0-ASI --- Aug  3 2012 20:21:21
$end

$timescale
     1 ps
$end

$scope module SystemC $end
$var wire    1  aaa  cs       $end
$var wire    1  aab  clk       $end
$var wire    1  aac  DI       $end
$var wire    1  aad  DO       $end
$upscope $end
$enddefinitions  $end

$comment
All initial values are dumped below at time 0 sec = 0 timescale units.
$end

$dumpvars
1aaa
0aab
zaac
zaad
$end

#10000
1aab

#15000
0aaa

#20000
0aab

#30000
1aab
1aac

#40000
0aab

#50000
1aab

#60000
0aab

#70000
1aab

#80000
0aab

#90000
1aab

#100000
0aab

#110000
1aab

#120000
0aab

#130000
1aab

#140000
0aab

#150000
1aab

#160000
0aab

#170000
1aab
0aac

#175000
1aaa

#180000
0aab

#190000
1aab
zaac

#195000
0aaa

#200000
0aab

#210000
1aab
0aac

#220000
0aab

#230000
1aab

#240000
0aab

#250000
1aab

#260000
0aab

#270000
1aab

#280000
0aab

#290000
1aab

#300000
0aab

#310000
1aab

#320000
0aab

#330000
1aab
1aac

